"","jobID","Title","jobURL","Company","companyURL","Location","datePosted","Description"
"1","66701528","Oracle Retail Consultant","https://www.linkedin.com/jobs2/view/66701528?trk=jserp_job_details_text","
Wipro
","http://www.linkedin.com/company/wipro?trk=jserp_company_name","San Francisco, CA","Aug 12, 2015","Key skills required for the job are: Oracle... /Testing) You may serve as entry level specialist..."
"2","38689892","Associate Customer Success Manager/Associate Account Manager","https://www.linkedin.com/jobs2/view/38689892?trk=jserp_job_details_text","
Dynamic Signal
","http://www.linkedin.com/company/dynamic-signal?trk=jserp_company_name","San Bruno, CA","Aug 12, 2015","Part of the Client Services team, our Associate... in Dynamic Signal’s technology. This entry-level..."
"3","64638620","Billing Specialist","https://www.linkedin.com/jobs2/view/64638620?trk=jserp_job_details_text","
YuMe
","http://www.linkedin.com/company/yume?trk=jserp_company_name","Redwood City","Aug 12, 2015","...career to the next level?  Here at YuMe, we are... Assist in auditing monthly various Order Entry data..."
"4","67484359","Staff Engineer/Geologist/Scientist ","https://www.linkedin.com/jobs2/view/67484359?trk=jserp_job_details_text","
Terraphase Engineering Inc.
","http://www.linkedin.com/company/terraphase-engineering-inc-?trk=jserp_company_name","Oakland, CA","Aug 12, 2015","Terraphase Engineering is seeking a self... organization as an entry level Staff Engineer..."
"5","77857203","Registered Nurse - GI - Bay (INTERN) - LIMITED TERM 6 Months","https://www.linkedin.com/jobs2/view/77857203?trk=jserp_job_details_text","
Sutter Health
","http://www.linkedin.com/company/sutter-health?trk=jserp_company_name","San Francisco, CA, US","Aug 12, 2015","Listing InfoThis is considered an entry-level position.  This nurse will work under the direction..."
"6","77850825","Diesel Mechanic","https://www.linkedin.com/jobs2/view/77850825?trk=jserp_job_details_text","
Ryder System, Inc.
","http://www.linkedin.com/company/ryder-system-inc?trk=jserp_company_name","Hayward, CA, US","Aug 12, 2015","Listing InfoUnder close supervision, this... required, perform all entry level tasks..."
"7","77844129","Student - Need Resume Padding - Entry Level Marketing","https://www.linkedin.com/jobs2/view/77844129?trk=jserp_job_details_text","
Safe and Sound Security
","http://www.linkedin.com/company/safe-&-sound-security-llc?trk=jserp_company_name","Walnut Creek, CA, US","Aug 12, 2015","Listing InfoSafe and Sound Security was given an... and managers have started in one of our entry-level..."
"8","77843619","CUSTOMER SERVICE / RETAIL REPRESENTATIVES - NEW OPENINGS","https://www.linkedin.com/jobs2/view/77843619?trk=jserp_job_details_text","
Self Made Marketing
","http://www.linkedin.com/company/self_made_marketing?trk=jserp_company_name","Richmond, CA, US","Aug 12, 2015","Our mission is to build connections between our... Entry Level and Experienced Customer Service / Retail..."
"9","77842754","CUSTOMER SERVICE / RETAIL REPRESENTATIVES - NEW OPENINGS","https://www.linkedin.com/jobs2/view/77842754?trk=jserp_job_details_text","
Self Made Marketing
","http://www.linkedin.com/company/self_made_marketing?trk=jserp_company_name","Hayward, CA, US","Aug 12, 2015","Our mission is to build connections between our... Entry Level and Experienced Customer Service / Retail..."
"10","77842069","Customer Support Representative","https://www.linkedin.com/jobs2/view/77842069?trk=jserp_job_details_text","
Safe and Sound Security
","http://www.linkedin.com/company/safe-&-sound-security-llc?trk=jserp_company_name","Walnut Creek, CA, US","Aug 12, 2015","Listing InfoSafe and Sound Security was given an... and managers have started in one of our entry-level..."
"11","77841493","College Students Wanted - Flexible Schedules","https://www.linkedin.com/jobs2/view/77841493?trk=jserp_job_details_text","
Safe and Sound Security
","http://www.linkedin.com/company/safe-&-sound-security-llc?trk=jserp_company_name","Walnut Creek, CA, US","Aug 12, 2015","Listing InfoSafe and Sound Security was given an... and managers have started in one of our entry-level..."
"12","77840753","Entry Level Business Development","https://www.linkedin.com/jobs2/view/77840753?trk=jserp_job_details_text","
Safe and Sound Security
","http://www.linkedin.com/company/safe-&-sound-security-llc?trk=jserp_company_name","Walnut Creek, CA, US","Aug 12, 2015","...have started in one of our entry-level positions.Ar... from an entry level position and most of them had..."
"13","77833408","Outside Sales Representative","https://www.linkedin.com/jobs2/view/77833408?trk=jserp_job_details_text","
D.P. Nicoli, Inc.
","http://www.linkedin.com/company/d-p-nicoli-inc-?trk=jserp_company_name","South San Francisco, CA, US","Aug 12, 2015","Listing InfoWe are a 33 year old company that has... and supply company are seeking an entry level..."
"14","77826980","SPORTS AND ENTERTAINMENT - ADVERTISING AND MARKETING","https://www.linkedin.com/jobs2/view/77826980?trk=jserp_job_details_text","
InZone Marketing
","http://www.linkedin.com/company/inzone-marketing?trk=jserp_company_name","Berkeley, CA, US","Aug 12, 2015","...- MARKETING / ADVERTISING / SALESEntry Level... in the area. This is an entry level position. All..."
"15","77826977","ENTRY LEVEL SPORTS MARKETING CAREER OPPORTUNITY","https://www.linkedin.com/jobs2/view/77826977?trk=jserp_job_details_text","
InZone Marketing
","http://www.linkedin.com/company/inzone-marketing?trk=jserp_company_name","Berkeley, CA, US","Aug 12, 2015","Listing InfoInZone Marketing, Inc's Company... ? ENTRY LEVEL CAREER OPPORTUNITYWe are looking..."
"16","77827246","Campaign and Marketing Coordinator - Marketing & Events","https://www.linkedin.com/jobs2/view/77827246?trk=jserp_job_details_text","
InZone Marketing
","http://www.linkedin.com/company/inzone-marketing?trk=jserp_company_name","Berkeley, CA, US","Aug 12, 2015","...between consumers and brands.NOW HIRING - ENTRY LEVEL... opportunity to start entry level & move up to a management..."
"17","77826966","Multiple Positions Available - Entry Level Management - ...","https://www.linkedin.com/jobs2/view/77826966?trk=jserp_job_details_text","
InZone Marketing
","http://www.linkedin.com/company/inzone-marketing?trk=jserp_company_name","Berkeley, CA, US","Aug 12, 2015","...between consumers and brands.Entry Level ManagementWe... large-scale expansion, and is in need of new ENTRY..."
"18","77827233","RESTAURANT/ BAR/ CUSTOMER SERVICE/RETAIL EXPERIENCE WANTED!","https://www.linkedin.com/jobs2/view/77827233?trk=jserp_job_details_text","
InZone Marketing
","http://www.linkedin.com/company/inzone-marketing?trk=jserp_company_name","Berkeley, CA, US","Aug 12, 2015","Listing InfoInZone Marketing, Inc's Company... to meet you!We have several full-time entry level..."
"19","77827231","Entry Level Marketing- JUMPSTART YOUR CAREER TODAY!","https://www.linkedin.com/jobs2/view/77827231?trk=jserp_job_details_text","
InZone Marketing
","http://www.linkedin.com/company/inzone-marketing?trk=jserp_company_name","Berkeley, CA, US","Aug 12, 2015","Listing InfoInZone Marketing, Inc's Company... looking to fill entry level positions in multiple..."
"20","77826964","ARE YOU SPORTS MINDED? ENTRY LEVEL CAREER OPPORTUNITY","https://www.linkedin.com/jobs2/view/77826964?trk=jserp_job_details_text","
InZone Marketing
","http://www.linkedin.com/company/inzone-marketing?trk=jserp_company_name","Berkeley, CA, US","Aug 12, 2015","Listing InfoInZone Marketing, Inc's Company... ? ENTRY LEVEL CAREER OPPORTUNITYWe are looking..."
"21","77827227","ENTRY LEVEL POSITIONS WITH PAID TRAINING!","https://www.linkedin.com/jobs2/view/77827227?trk=jserp_job_details_text","
InZone Marketing
","http://www.linkedin.com/company/inzone-marketing?trk=jserp_company_name","Berkeley, CA, US","Aug 12, 2015","...- Immediate Openings!!Entry-Level Account Representatives... impression.We are looking for entry-level candidates as..."
"22","77827222","Entry Level Customer Service Reps","https://www.linkedin.com/jobs2/view/77827222?trk=jserp_job_details_text","
InZone Marketing
","http://www.linkedin.com/company/inzone-marketing?trk=jserp_company_name","Berkeley, CA, US","Aug 12, 2015","...SERVICE REPS - Entry Level Marketing / AdvertisingIF YOU... 15 entry level positions immediately. We are..."
"23","77827216","4 ENTRY LEVEL POSITIONS - Marketing / Advertising / Sales","https://www.linkedin.com/jobs2/view/77827216?trk=jserp_job_details_text","
InZone Marketing
","http://www.linkedin.com/company/inzone-marketing?trk=jserp_company_name","Berkeley, CA, US","Aug 12, 2015","...between consumers and brands.4 ENTRY LEVEL POSITIONS... to the expansion of the company.Entry Level Sales..."
"24","77826620","Independent Sales Associate","https://www.linkedin.com/jobs2/view/77826620?trk=jserp_job_details_text","
Central Payment
","http://www.linkedin.com/company/central-payment-corp?trk=jserp_company_name","Oakland, CA, US","Aug 12, 2015","...and motivation.Keywords: Entry level sales, customer... , entrepreneur, summer job, entry level, sales..."
"25","77822445","Independent Sales Associate","https://www.linkedin.com/jobs2/view/77822445?trk=jserp_job_details_text","
Central Payment
","http://www.linkedin.com/company/central-payment-corp?trk=jserp_company_name","San Francisco, CA, US","Aug 12, 2015","...and motivation.Keywords: Entry level sales, customer... , entrepreneur, summer job, entry level, sales..."
"26","67481678","Closing Specialist, Consumer Lending","https://www.linkedin.com/jobs2/view/67481678?trk=jserp_job_details_text","
LendingHome Corporation
","http://www.linkedin.com/company/lendinghome-corporation?trk=jserp_company_name","San Francisco Bay Area","Aug 12, 2015","Come join LendingHome  and be a part of our... at the highest possible level. Bring your wits, strategies..."
"27","67481660","Fixed Asset Accountant","https://www.linkedin.com/jobs2/view/67481660?trk=jserp_job_details_text","
Franklin Templeton Investments
","http://www.linkedin.com/company/franklin-templeton-investments?trk=jserp_company_name","Rancho Cordova, CA","Aug 12, 2015","cThe Accountant is responsible for management... , Accounting Entry Create, Depreciation Close..."
"28","58744090","Assistant Project Manager II - Construction","https://www.linkedin.com/jobs2/view/58744090?trk=jserp_job_details_text","
Pankow Builders
","http://www.linkedin.com/company/charles-pankow-builders?trk=jserp_company_name","Bay Area","Aug 12, 2015","Mid-Entry level position to provide assistance to the Senior Project Manager/Project Manager..."
"29","49828070","Investor Services Representative ","https://www.linkedin.com/jobs2/view/49828070?trk=jserp_job_details_text","
Phoenix American Financial Services
","http://www.linkedin.com/company/phoenix-american?trk=jserp_company_name","San Francisco Bay Area","Aug 12, 2015","JOB SUMMARY: We are looking for candidates that... the processing & entry of new business, updating..."
"30","63877682","Entry Level Sales/Recruiting","https://www.linkedin.com/jobs2/view/63877682?trk=jserp_job_details_text","
Talener
","http://www.linkedin.com/company/talener?trk=jserp_company_name","San Francisco, CA","Aug 12, 2015","Who is Talener? Talener is one of the top technology staffing firms with offices in the country’s top cities: New York, Los Angeles, San Francisco, Chicago, Boston & Washington DC.  We work with startups to Fortune 500s, major media agencies to top tech organizations. Our goal is to be the best..."
"31","77821559","Entry Level Marketing - Get your head start the way Mark ...","https://www.linkedin.com/jobs2/view/77821559?trk=jserp_job_details_text","
Safe and Sound Security
","http://www.linkedin.com/company/safe-&-sound-security-llc?trk=jserp_company_name","Concord, CA, US","Aug 12, 2015","Listing InfoSafe and Sound Security was given an... and managers have started in one of our entry-level..."
"32","77821330","Account Sales Representative","https://www.linkedin.com/jobs2/view/77821330?trk=jserp_job_details_text","
Human Capital Sales
","http://www.linkedin.com/company/human-sales?trk=jserp_company_name","San Francisco, CA, US","Aug 12, 2015","...B2B sales environment is highly preferred. Entry-level college graduates with very strong history..."
"33","77817264","S/O with Secret Clearance Pleasanton $16 (Wed-Sun 0030-0830)","https://www.linkedin.com/jobs2/view/77817264?trk=jserp_job_details_text","
AlliedBarton Security Services
","http://www.linkedin.com/company/alliedbarton-security-services?trk=jserp_company_name","Oakland, CA, US","Aug 12, 2015","..., as is a high level government clearance... security officer include working at an entry..."
"34","77815707","STUDENTS WANTED FOR PART TIME EVENING WORK!","https://www.linkedin.com/jobs2/view/77815707?trk=jserp_job_details_text","
Safe and Sound Security
","http://www.linkedin.com/company/safe-&-sound-security-llc?trk=jserp_company_name","Oakland, CA, US","Aug 12, 2015","Listing InfoSafe and Sound Security was given an... and managers have started in one of our entry-level..."
"35","77807837","Business Office Manager","https://www.linkedin.com/jobs2/view/77807837?trk=jserp_job_details_text","
The REM Group
","http://www.linkedin.com/company/rem?trk=jserp_company_name","Oakland, CA, US","Aug 12, 2015","...candidates on a national level. He excels in his... processes, which include completion of data entry..."
"36","77803574","Outside Sales Representative","https://www.linkedin.com/jobs2/view/77803574?trk=jserp_job_details_text","
Breakaway Consultants
","http://www.linkedin.com/company/breakaway-consultants?trk=jserp_company_name","San Francisco, CA, US","Aug 12, 2015","...Francisco Bay area.This opportunity is ideal for entry level and college grads!If you are viewed as a..."
"37","77793005","Client Care Coordinator","https://www.linkedin.com/jobs2/view/77793005?trk=jserp_job_details_text","
Silverado Care
","http://www.linkedin.com/company/silverado-senior-living?trk=jserp_company_name","Belmont, CA, US","Aug 12, 2015","Listing InfoSilverado.Passion. Possibilities... Coordinator an entry-level position, with significant..."
"38","77792610","Entry Level Marketing and Sales","https://www.linkedin.com/jobs2/view/77792610?trk=jserp_job_details_text","
Prosperity Marketing Group
","http://www.linkedin.com/company/prosperity-marketing-group?trk=jserp_company_name","Piedmont, CA, US","Aug 12, 2015","...to be trained into an entry-level management... filling entry-level management positions for Sales..."
"39","77792194","Internal Recruiting/Staffing Coordinator – Entry level...","https://www.linkedin.com/jobs2/view/77792194?trk=jserp_job_details_text","
Fisher Investments
","http://www.linkedin.com/company/fisher-investments?trk=jserp_company_name","San Mateo, CA, US","Aug 12, 2015","Listing InfoAre you the type of person that enjoys crossing off the last thing on your to do list? Are you the go-to person for organizing an event or coordinating activities? Do you want to work with a stellar team of people who are all driven by the common goal of matching candidates with their..."
"40","77765529","** Entry Level Full Time Sales **","https://www.linkedin.com/jobs2/view/77765529?trk=jserp_job_details_text","
NorCal Acquisitions, Inc.
","http://www.linkedin.com/company/norcal-acquisitions-inc-?trk=jserp_company_name","San Francisco, CA, US","Aug 12, 2015","...entry level phase, move into a leadership role... to running their own branch. The entry level phase is..."
"41","77751182","Entry Level Projects - Trainee","https://www.linkedin.com/jobs2/view/77751182?trk=jserp_job_details_text","
Platt Electric Supply
","http://www.linkedin.com/company/platt-electric-supply?trk=jserp_company_name","Concord, CA, US","Aug 12, 2015","The Entry Level Projects Trainee will learn... entry level position. Trainees will gain..."
"42","77748423","Customer Service Representatives Needed!","https://www.linkedin.com/jobs2/view/77748423?trk=jserp_job_details_text","
OfficeTeam
","http://www.linkedin.com/company/officeteam?trk=jserp_company_name","San Francisco, CA, US","Aug 12, 2015","...experience through up-selling higher level services... accurately and efficiently; data entry ~Responds..."
"43","77748348","Entry Level Recruiting Coordinator","https://www.linkedin.com/jobs2/view/77748348?trk=jserp_job_details_text","
OfficeTeam
","http://www.linkedin.com/company/officeteam?trk=jserp_company_name","San Francisco, CA, US","Aug 12, 2015","...hourOfficeTeam is actively seeking an entry level... ? This is a fantastic opportunity for an entry level..."
"44","77749262","2 Entry Level Administrative Assistants -ASAP","https://www.linkedin.com/jobs2/view/77749262?trk=jserp_job_details_text","
OfficeTeam
","http://www.linkedin.com/company/officeteam?trk=jserp_company_name","San Francisco, CA, US","Aug 12, 2015","Ref ID: 00410-9778527Classification: Account... junior level Administrative Assistant to work at a..."
"45","77749125","Sales Assistant","https://www.linkedin.com/jobs2/view/77749125?trk=jserp_job_details_text","
OfficeTeam
","http://www.linkedin.com/company/officeteam?trk=jserp_company_name","Sausalito, CA, US","Aug 12, 2015","...superior level of accuracy, consistency, and work... on a moments notice High level of accountability..."
"46","77749074","Sales Assistant","https://www.linkedin.com/jobs2/view/77749074?trk=jserp_job_details_text","
OfficeTeam
","http://www.linkedin.com/company/officeteam?trk=jserp_company_name","Walnut Creek, CA, US","Aug 12, 2015","...entry level position within a great company? OfficeTeam is looking for qualified candidates for an entry..."
"47","77748101","Entry-Level Inventory Specialists Needed!","https://www.linkedin.com/jobs2/view/77748101?trk=jserp_job_details_text","
OfficeTeam
","http://www.linkedin.com/company/officeteam?trk=jserp_company_name","San Francisco, CA, US","Aug 12, 2015","Ref ID: 00410-190558Classification: Customer ServiceCompensation: $12.25 to $13.00 per hourAn on-demand delivery service is looking for 10 Inventory Specialists to photograph in-store items for their growing online presence. Role starts as soon as Monday, August 17th and will last for the next 6 ..."
"48","67474565","Product Designer","https://www.linkedin.com/jobs2/view/67474565?trk=jserp_job_details_text","
Auction.com
","http://www.linkedin.com/company/auction.com?trk=jserp_company_name","Belmont , California","Aug 12, 2015","Auction.com Auction.com is disrupting the $26... -level requirements into flows and artifacts.Transfor..."
"49","77741687","Hotel Valet Parking Attendant - Oakland","https://www.linkedin.com/jobs2/view/77741687?trk=jserp_job_details_text","
Towne Park
","http://www.linkedin.com/company/towne-park?trk=jserp_company_name","Oakland, CA, US","Aug 12, 2015","...managers started their careers in entry-level, hourly... Valet Attendant, Entry Level..."
"50","77740066","Scientist, Preclinical and Translational Pharmacokinetics...","https://www.linkedin.com/jobs2/view/77740066?trk=jserp_job_details_text","
Genentech
","http://www.linkedin.com/company/genentech?trk=jserp_company_name","South San Francisco, CA, US","Aug 12, 2015","Listing InfoWe’re passionate and rigorous about... at Genentech is seeking an entry level Associate Scientist..."
"51","67470353","Outside Sales Representative - $100k plus income potential","https://www.linkedin.com/jobs2/view/67470353?trk=jserp_job_details_text","
Sales Jobs Network
",NA,"San Francisco Bay Area","Aug 12, 2015","...Sales - entry and mid-level Consumer Sales - entry and mid-level Financial Services - entry and mid..."
"52","67468146","Account Mgr, Associate Advertiser","https://www.linkedin.com/jobs2/view/67468146?trk=jserp_job_details_text","
CJ Affiliate by Conversant
","http://www.linkedin.com/company/commission-junction?trk=jserp_company_name","San Francisco, CA","Aug 12, 2015","...to know that CJ Affiliate is looking for entry level Account Managers to join its Client Development..."
"53","67464912","Term Employment ""Remittance Specialist I""","https://www.linkedin.com/jobs2/view/67464912?trk=jserp_job_details_text","
MUFG in the Americas
","http://www.linkedin.com/company/mufg-americas?trk=jserp_company_name","Oakland, CA","Aug 12, 2015","...to meet strict time constraints. As a data entry... entry operators will be required to type 5,000..."
"54","77690084","Key Account Manager - wholesale home furnishings","https://www.linkedin.com/jobs2/view/77690084?trk=jserp_job_details_text","
roost
","http://www.linkedin.com/company/roost-home?trk=jserp_company_name","San Francisco Bay Area","Aug 12, 2015","...relationships. Handle all aspects of order entry... of fulfillment instructions, order entry, document..."
"55","62979866","Delegated Assurance Review Processor ","https://www.linkedin.com/jobs2/view/62979866?trk=jserp_job_details_text","
National Mortgage Insurance Corporation - ""National MI""
","http://www.linkedin.com/company/national-mortgage-insurance-corporation-national-mi-?trk=jserp_company_name","Emeryville","Aug 11, 2015","...responsible for data entry as well as delivery... to the lender. Responsible for data entry..."
"56","77735505","Nabisco Senior Sales Service Representative - Martinez, CA","https://www.linkedin.com/jobs2/view/77735505?trk=jserp_job_details_text","
Mondel?z International
","http://www.linkedin.com/company/mondelezinternational?trk=jserp_company_name","Martinez, CA, US","Aug 12, 2015",".... This is an entry-level position with opportunity... at store level. Building and maintaining in-store..."
"57","77725443","Cook II - Baker/Pastry Cook (Temporary)","https://www.linkedin.com/jobs2/view/77725443?trk=jserp_job_details_text","
Hyatt Hotels Corporation
","http://www.linkedin.com/company/hyatt?trk=jserp_company_name","Burlingame, CA, US","Aug 12, 2015","...higher level bakers, and performs other duties as... AirportJob LevelHourly/Entry Level..."
"58","77723918","Houseperson - Housekeeping","https://www.linkedin.com/jobs2/view/77723918?trk=jserp_job_details_text","
Hyatt Hotels Corporation
","http://www.linkedin.com/company/hyatt?trk=jserp_company_name","San Francisco, CA, US","Aug 12, 2015","...FranciscoOrganizationHyatt Regency San FranciscoJob LevelHourly/Entry Level EmployeeJobHousekeeping/Laundry"
"59","77724317","Word Processor","https://www.linkedin.com/jobs2/view/77724317?trk=jserp_job_details_text","
Robert Half Legal
","http://www.linkedin.com/company/robert-half-legal?trk=jserp_company_name","Oakland, CA, US","Aug 12, 2015","Ref ID: 00340-155115Classification: Legal Word... hiring for a fantastic entry-level job opportunity..."
"60","77711693","Administrative Assistant (San Francisco)","https://www.linkedin.com/jobs2/view/77711693?trk=jserp_job_details_text","
Credit Suisse
","http://www.linkedin.com/company/credit-suisse?trk=jserp_company_name","San Francisco County, CA, US","Aug 12, 2015","...senior-level peoplen Must possess strong problem... Prior experience working for senior-level officers..."
"61","77705690","Utility Worker - GC (Bay Area)","https://www.linkedin.com/jobs2/view/77705690?trk=jserp_job_details_text","
PG&E
","http://www.linkedin.com/company/pacific-gas-and-electric-company?trk=jserp_company_name","Hayward, CA, US","Aug 12, 2015","...Construction team. The Utility Worker position is an entry level position in Gas Operations with advancement..."
"62","77698428","ENTRY LEVEL Staff Accountants","https://www.linkedin.com/jobs2/view/77698428?trk=jserp_job_details_text","
Accountemps
","http://www.linkedin.com/company/accountemps?trk=jserp_company_name","San Francisco, CA, US","Aug 12, 2015","...Francisco Financial District is looking for entry level staff accountants to expand their accounting..."
"63","77698425","Accountant - Entry Level","https://www.linkedin.com/jobs2/view/77698425?trk=jserp_job_details_text","
Accountemps
","http://www.linkedin.com/company/accountemps?trk=jserp_company_name","San Leandro, CA, US","Aug 12, 2015","...looking for a skilled Data Entry Clerk. The Data Entry Clerk will need to have strong Excel and Word..."
"64","77700189","Clinical Lab Scientist - Laboratory - Burlingame (Full Time)","https://www.linkedin.com/jobs2/view/77700189?trk=jserp_job_details_text","
Mills-Peninsula Health Services
","http://www.linkedin.com/company/mills-peninsula-medical-group?trk=jserp_company_name","Burlingame, CA, US","Aug 12, 2015","...of biology, microbiology and immunology at a level... keyboarding, mouse movement and data entry skills..."
"65","77700156","Accountant - Entry Level","https://www.linkedin.com/jobs2/view/77700156?trk=jserp_job_details_text","
Accountemps
","http://www.linkedin.com/company/accountemps?trk=jserp_company_name","San Francisco, CA, US","Aug 12, 2015","A leasing company in San Francisco is looking for a bright, entry-level accountant to assist..."
"66","77696078","Assistant Buyer at Expanding Retail Store","https://www.linkedin.com/jobs2/view/77696078?trk=jserp_job_details_text","
Accountemps
","http://www.linkedin.com/company/accountemps?trk=jserp_company_name","San Francisco, CA, US","Aug 12, 2015","Listing InfoA fun retail store in the Financial... . This is a fantastic opportunity for an entry level..."
"67","77695080","Entry Level Finance / Accounting opportunities","https://www.linkedin.com/jobs2/view/77695080?trk=jserp_job_details_text","
Accountemps
","http://www.linkedin.com/company/accountemps?trk=jserp_company_name","San Francisco, CA, US","Aug 12, 2015","One of the most prestige financial institutions... seeking entry-level candidates looking to grow..."
"68","77694076","Compliance Analyst","https://www.linkedin.com/jobs2/view/77694076?trk=jserp_job_details_text","
Robert Half Management Resources
","http://www.linkedin.com/company/robert-half-management-resources?trk=jserp_company_name","San Francisco, CA, US","Aug 12, 2015","DutiesRobert Half Management Resources is seeking an entry level Compliance Specialist. This person..."
"69","77692507","Home Services Specialist I - Home Loan Processor - ...","https://www.linkedin.com/jobs2/view/77692507?trk=jserp_job_details_text","
Bank of America
","http://www.linkedin.com/company/bank-of-america?trk=jserp_company_name","Concord, CA, US","Aug 12, 2015","This role is an entry level loan processing role... level of customer service by being proactive..."
"70","77690634","Entry Level needed for a quick project ASAP!","https://www.linkedin.com/jobs2/view/77690634?trk=jserp_job_details_text","
Accountemps
","http://www.linkedin.com/company/accountemps?trk=jserp_company_name","San Francisco, CA, US","Aug 12, 2015","This Cleaning Product company is in need of someone for a quick week long project to help filing, auditing invoices, scanning, and uploading them into file share. If you are looking for a quick little project then apply today!"
"71","77692396","Public Relations Assistant - Entry Level","https://www.linkedin.com/jobs2/view/77692396?trk=jserp_job_details_text","
The Job Window
","http://www.linkedin.com/company/the-job-window?trk=jserp_company_name","San Francisco, CA, US","Aug 12, 2015","...for an entry level Public Relations Assistant... and break out products. The Entry Level Public Relations..."
"72","77688959","Dispensing Support","https://www.linkedin.com/jobs2/view/77688959?trk=jserp_job_details_text","
Davita
","http://www.linkedin.com/company/davita?trk=jserp_company_name","San Bruno, CA, US","Aug 12, 2015","General Purpose Of The JobThis position packs... Demonstrated ability inbasic math required Entry-level..."
"73","77676916","Payroll Benefits Specialist","https://www.linkedin.com/jobs2/view/77676916?trk=jserp_job_details_text","
Whole Foods Market
","http://www.linkedin.com/company/whole-foods-market?trk=jserp_company_name","Berkeley, CA, US","Aug 11, 2015","...administers store level payroll and benefits programs... , Outlook at an entry level Able to work a flexible..."
"74","77679008","Branch Manager Trainee","https://www.linkedin.com/jobs2/view/77679008?trk=jserp_job_details_text","
Hertz
","http://www.linkedin.com/company/hertz?trk=jserp_company_name","San Francisco, CA, US","Aug 11, 2015","...receive the use of a company car upon entry into... don’t stop there; our top level management regularly..."
"75","67459951","Quality Assurance Analyst - Medi-Cal Claims","https://www.linkedin.com/jobs2/view/67459951?trk=jserp_job_details_text","
San Francisco Health Plan
","http://www.linkedin.com/company/san-francisco-health-plan?trk=jserp_company_name","San Francisco Bay Area","Aug 11, 2015","...intermediate to advanced level QA audits/reviews on... intermediate and advanced level claim transactions..."
"76","63830058","Technical Lead Commerce","https://www.linkedin.com/jobs2/view/63830058?trk=jserp_job_details_text","
Wipro
","http://www.linkedin.com/company/wipro?trk=jserp_company_name","San Bruno","Aug 11, 2015","Mandatory Skills eCommerce Desirable Skills SOAP... entry level specialist with expertise in particular..."
"77","67459655","Technical Lead Big Data","https://www.linkedin.com/jobs2/view/67459655?trk=jserp_job_details_text","
Wipro
","http://www.linkedin.com/company/wipro?trk=jserp_company_name","Foster City","Aug 11, 2015","...may serve as entry level specialist with expertise... as entry level specialist with expertise..."
"78","67460518","Technical Lead Admin ESB","https://www.linkedin.com/jobs2/view/67460518?trk=jserp_job_details_text","
Wipro
","http://www.linkedin.com/company/wipro?trk=jserp_company_name","Redwood City","Aug 11, 2015","Mandatory SkillsOracle SOA SuiteDesirable Skills... ) You may serve as entry level specialist..."
"79","54483080","Entry Level Sales and Marketing","https://www.linkedin.com/jobs2/view/54483080?trk=jserp_job_details_text","
Self Made Marketing
","http://www.linkedin.com/company/self_made_marketing?trk=jserp_company_name","Richmond, Ca","Aug 11, 2015","...for competitive individuals to fill Entry Level positions... locations! Why Entry Level Positions are important..."
"80","67457698","People & Culture Manager, West Coast","https://www.linkedin.com/jobs2/view/67457698?trk=jserp_job_details_text","
MEC
","http://www.linkedin.com/company/mec?trk=jserp_company_name","San Francisco, CA","Aug 11, 2015","In this position … You’ll commit yourself... /data entry metrics / process development   People..."
"81","77669815","The North Face: Stock Associate (Part-Time) San Francisco...","https://www.linkedin.com/jobs2/view/77669815?trk=jserp_job_details_text","
VF Corporation
","http://www.linkedin.com/company/vf-corporation?trk=jserp_company_name","San Francisco, CA, US","Aug 11, 2015","...high level of product knowledge of all categories... l Store Non-ManagementThis part-time entry-level..."
"82","77668481","Quality Assurance Associate – Returns Specialist","https://www.linkedin.com/jobs2/view/77668481?trk=jserp_job_details_text","
Mettler Toledo
","http://www.linkedin.com/company/mettler-toledo-international-inc?trk=jserp_company_name","Oakland, CA, US","Aug 11, 2015","Listing Info Quality Assurance Associate... . This is an entry level Quality Assurance position..."
"83","77667403","Management Trainee/ On-Call STAR","https://www.linkedin.com/jobs2/view/77667403?trk=jserp_job_details_text","
IST Management
","http://www.linkedin.com/company/ist-management-services?trk=jserp_company_name","San Francisco, CA, US","Aug 11, 2015","Listing InfoInterviewing Management Trainees Now... , copying, data entry, word processing, sending..."
"84","77657799","Data Entry Specialist","https://www.linkedin.com/jobs2/view/77657799?trk=jserp_job_details_text","
ComplianceEase
","http://www.linkedin.com/company/complianceease?trk=jserp_company_name","Burlingame, CA, US","Aug 11, 2015","Listing InfoPosition: Data Entry Specialist... an entry-level position.  We are seeking creative..."
"85","77643518","Diesel Mechanic/Technician III - Entry Level","https://www.linkedin.com/jobs2/view/77643518?trk=jserp_job_details_text","
Penske Logistics Corp.
","http://www.linkedin.com/company/penske-logistics?trk=jserp_company_name","Hayward, CA, US","Aug 11, 2015","Description Position Summary: Perform minor... preferred for data entry into maintenance systems..."
"86","57705076","Desktop Systems Support, Intermediate ","https://www.linkedin.com/jobs2/view/57705076?trk=jserp_job_details_text","
Merrill Corporation
","http://www.linkedin.com/company/merrill-corporation?trk=jserp_company_name","San Francisco Bay Area","Aug 11, 2015","The On Site Support Analyst is a key member... . This is NOT an entry level position. In-order..."
"87","77635483","Interpreter Services Manager","https://www.linkedin.com/jobs2/view/77635483?trk=jserp_job_details_text","
UCSF Benioff Children's Hospital Oakland
","http://www.linkedin.com/company/children%27s-hospital-&-research-center-foundation?trk=jserp_company_name","Oakland, CA, US","Aug 11, 2015","Listing InfoState License/RegistrationASWLicensed... applicable, for data entry, report/document development..."
"88","77637045","Office Associate","https://www.linkedin.com/jobs2/view/77637045?trk=jserp_job_details_text","
UCSF Benioff Children's Hospital Oakland
","http://www.linkedin.com/company/children%27s-hospital-&-research-center-foundation?trk=jserp_company_name","Oakland, CA, US","Aug 11, 2015","Listing InfoHigh School/GEDJob SummaryThe purpose... entry/keyboarding, ability to use electronic medical..."
"89","67453845","Pharmaceutical Sales Representative","https://www.linkedin.com/jobs2/view/67453845?trk=jserp_job_details_text","
Sales Jobs Network
",NA,"San Francisco Bay Area","Aug 11, 2015","Face-to-face interviews for highly sought pharmaceutical sales positions with excellent compensation packages, including base salary, bonuses, full benefit packages, generous PTO and vacation time and company car. Pharmaceutical companies depend on Sales Job Network Direct to help them quickly ..."
"90","77611472","Chain District Manager (East Bay)","https://www.linkedin.com/jobs2/view/77611472?trk=jserp_job_details_text","
Southern Wine & Spirits
","http://www.linkedin.com/company/southern-wine-&-spirits?trk=jserp_company_name","Union City, CA, US","Aug 11, 2015","DescriptionManage a team of entry-level sales/merchandising professionals to include oversight..."
"91","77609179","Facility Planner - Scheduler","https://www.linkedin.com/jobs2/view/77609179?trk=jserp_job_details_text","
Jones Lang LaSalle
","http://www.linkedin.com/company/jll?trk=jserp_company_name","San Francisco, CA, US","Aug 11, 2015",".../Scheduler must ensure the highest level of professionalism... data entry and management; preventative..."
"92","67448250","JavaScript Developer (React.js or Backbone.js)","https://www.linkedin.com/jobs2/view/67448250?trk=jserp_job_details_text","
CyberCoders
","http://www.linkedin.com/company/cybercoders?trk=jserp_company_name","San Francisco, CA","Aug 11, 2015","..., ranging from Entry level (Fresh College Graduate) to Senior Developer/Architect level, pay DOE- RELOCATION..."
"93","77602814","Hospital Assistant","https://www.linkedin.com/jobs2/view/77602814?trk=jserp_job_details_text","
UCSF
","http://www.linkedin.com/company/ucsf?trk=jserp_company_name","San Francisco, CA, US","Aug 11, 2015","...research, graduate-level education in the life sciences... -workers, & physicians • Timely data entry of all..."
"94","77604822","Research Coordinator","https://www.linkedin.com/jobs2/view/77604822?trk=jserp_job_details_text","
UCSF
","http://www.linkedin.com/company/ucsf?trk=jserp_company_name","San Francisco, CA, US","Aug 11, 2015","...Coordinator (Asst. CRC) will perform entry-level... and development to prepare and advance for journey-level work..."
"95","77604797","Lead Cage Wash Technician","https://www.linkedin.com/jobs2/view/77604797?trk=jserp_job_details_text","
UCSF
","http://www.linkedin.com/company/ucsf?trk=jserp_company_name","San Francisco, CA, US","Aug 11, 2015","...Technicians (The AAT position is entry level... biomedical research, graduate-level education..."
"96","77605584","Operations Analyst","https://www.linkedin.com/jobs2/view/77605584?trk=jserp_job_details_text","
UCSF
","http://www.linkedin.com/company/ucsf?trk=jserp_company_name","San Francisco, CA, US","Aug 11, 2015","...ensures efficient data entry processes and record... advanced biomedical research, graduate-level education..."
"97","77604701","Best Buy Mobile Sales Consultant","https://www.linkedin.com/jobs2/view/77604701?trk=jserp_job_details_text","
Best Buy
","http://www.linkedin.com/company/best-buy?trk=jserp_company_name","Hayward, CA, US","Aug 11, 2015","Listing InfoJob Title: Best Buy Mobile Sales... Level: Entry LevelCity: HaywardState..."
"98","77602619","Sales Consultant - Home Theater","https://www.linkedin.com/jobs2/view/77602619?trk=jserp_job_details_text","
Best Buy
","http://www.linkedin.com/company/best-buy?trk=jserp_company_name","San Carlos, CA, US","Aug 11, 2015","Listing InfoJob Title: Sales Consultant - Home... BuyEmployment Category: Part TimeJob Level: Entry..."
"99","77603701","Best Buy Sales Consultant – Computing and DI","https://www.linkedin.com/jobs2/view/77603701?trk=jserp_job_details_text","
Best Buy
","http://www.linkedin.com/company/best-buy?trk=jserp_company_name","San Francisco, CA, US","Aug 11, 2015","Listing InfoJob Title: Best Buy Sales... Level: Entry LevelCity: San FranciscoState..."
"100","77604479","Verizon Expert","https://www.linkedin.com/jobs2/view/77604479?trk=jserp_job_details_text","
Best Buy
","http://www.linkedin.com/company/best-buy?trk=jserp_company_name","San Francisco, CA, US","Aug 11, 2015","...: Full TimeJob Level: Entry LevelCity: San... .Maintain a high level of product knowledge within new..."
